…
accuracy <- map_df(ks, function(k){
  fit <- knn3(classe ~ ., data = training, k = k)
  
  y_hat <- predict(fit, testing, type = "class")
  cm_test <- confusionMatrix(data = y_hat, reference = testing$classe)
  test_error <- cm_test$overall["Accuracy"]
  
  tibble(test = test_error)
})

accuracy
```

```
## # A tibble: 74 x 1
##     test
##    <dbl>
##  1 0.947
##  2 0.924
##  3 0.906
##  4 0.887
##  5 0.875
##  6 0.860
##  7 0.845
##  8 0.839
##  9 0.834
## 10 0.826
## # ... with 64 more rows
```
…
